{
  "InterfaceParams": [
    {
      "SimpleName": "AnimatedSprite",
      "OwnerType": "StardewValley.AnimatedSprite",
      "InterfaceType": "Storm.StardewValley.Accessor.AnimatedSpriteAccessor"
    },
    {
      "SimpleName": "Program",
      "OwnerType": "StardewValley.Program",
      "InterfaceType": "Storm.StardewValley.Accessor.ProgramAccessor"
    },
    {
      "SimpleName": "StaticContext",
      "OwnerType": "StardewValley.Game1",
      "InterfaceType": "Storm.StardewValley.Accessor.StaticContextAccessor"
    },
    {
      "SimpleName": "GameLocation",
      "OwnerType": "StardewValley.GameLocation",
      "InterfaceType": "Storm.StardewValley.Accessor.GameLocationAccessor"
    },
    {
      "SimpleName": "Billboard",
      "OwnerType": "StardewValley.Menus.Billboard",
      "InterfaceType": "Storm.StardewValley.Accessor.BillboardAccessor"
    },
    {
      "SimpleName": "Character",
      "OwnerType": "StardewValley.Character",
      "InterfaceType": "Storm.StardewValley.Accessor.CharacterAccessor"
    },
    {
      "SimpleName": "NPC",
      "OwnerType": "StardewValley.NPC",
      "InterfaceType": "Storm.StardewValley.Accessor.NPCAccessor"
    },
    {
      "SimpleName": "Monster",
      "OwnerType": "StardewValley.Monsters.Monster",
      "InterfaceType": "Storm.StardewValley.Accessor.MonsterAccessor"
    },
    {
      "SimpleName": "Farmer",
      "OwnerType": "StardewValley.Farmer",
      "InterfaceType": "Storm.StardewValley.Accessor.FarmerAccessor"
    },
    {
      "SimpleName": "Item",
      "OwnerType": "StardewValley.Item",
      "InterfaceType": "Storm.StardewValley.Accessor.ItemAccessor"
    },
    {
      "SimpleName": "Tool",
      "OwnerType": "StardewValley.Tool",
      "InterfaceType": "Storm.StardewValley.Accessor.ToolAccessor"
    },
    {
      "SimpleName": "Object",
      "OwnerType": "StardewValley.Object",
      "InterfaceType": "Storm.StardewValley.Accessor.ObjectAccessor"
    },
    {
      "SimpleName": "Crop",
      "OwnerType": "StardewValley.Crop",
      "InterfaceType": "Storm.StardewValley.Accessor.CropAccessor"
    },
    {
      "SimpleName": "ClickableMenu",
      "OwnerType": "StardewValley.Menus.IClickableMenu",
      "InterfaceType": "Storm.StardewValley.Accessor.ClickableMenuAccessor"
    },
    {
      "SimpleName": "TempAnimatedSprite",
      "OwnerType": "StardewValley.TemporaryAnimatedSprite",
      "InterfaceType": "Storm.StardewValley.Accessor.TempAnimatedSpriteAccessor"
    },
    {
      "SimpleName": "Event",
      "OwnerType": "StardewValley.Event",
      "InterfaceType": "Storm.StardewValley.Accessor.EventAccessor"
    },
    {
      "SimpleName": "TerrainFeature",
      "OwnerType": "StardewValley.TerrainFeatures.TerrainFeature",
      "InterfaceType": "Storm.StardewValley.Accessor.TerrainFeatureAccessor"
    },
    {
      "SimpleName": "HoeDirt",
      "OwnerType": "StardewValley.TerrainFeatures.HoeDirt",
      "InterfaceType": "Storm.StardewValley.Accessor.HoeDirtAccessor"
    },
    {
      "SimpleName": "BobberBar",
      "OwnerType": "StardewValley.Menus.BobberBar",
      "InterfaceType": "Storm.StardewValley.Accessor.BobberBarAccessor"
    },
    {
      "SimpleName": "Chest",
      "OwnerType": "StardewValley.Objects.Chest",
      "InterfaceType": "Storm.StardewValley.Accessor.ChestAccessor"
    },
    {
      "SimpleName": "InventoryMenu",
      "OwnerType": "StardewValley.Menus.InventoryMenu",
      "InterfaceType": "Storm.StardewValley.Accessor.InventoryMenuAccessor"
    },
    {
      "SimpleName": "InventoryPage",
      "OwnerType": "StardewValley.Menus.InventoryPage",
      "InterfaceType": "Storm.StardewValley.Accessor.InventoryPageAccessor"
    },
    {
      "SimpleName": "GameMenu",
      "OwnerType": "StardewValley.Menus.GameMenu",
      "InterfaceType": "Storm.StardewValley.Accessor.GameMenuAccessor"
    },
    {
      "SimpleName": "Fence",
      "OwnerType": "StardewValley.Fence",
      "InterfaceType": "Storm.StardewValley.Accessor.FenceAccessor"
    },
    {
      "SimpleName": "CraftingPage",
      "OwnerType": "StardewValley.Menus.CraftingPage",
      "InterfaceType": "Storm.StardewValley.Accessor.CraftingPageAccessor"
    },
    {
      "SimpleName": "CraftingRecipe",
      "OwnerType": "StardewValley.CraftingRecipe",
      "InterfaceType": "Storm.StardewValley.Accessor.CraftingRecipeAccessor"
    },
    {
      "SimpleName": "ClickableComponent",
      "OwnerType": "StardewValley.Menus.ClickableComponent",
      "InterfaceType": "Storm.StardewValley.Accessor.ClickableComponentAccessor"
    },
    {
      "SimpleName": "ClickableTextureComponent",
      "OwnerType": "StardewValley.Menus.ClickableTextureComponent",
      "InterfaceType": "Storm.StardewValley.Accessor.ClickableTextureComponentAccessor"
    },
    {
      "SimpleName": "FishingRod",
      "OwnerType": "StardewValley.Tools.FishingRod",
      "InterfaceType": "Storm.StardewValley.Accessor.FishingRodAccessor"
    },
    {
      "SimpleName": "ChatBox",
      "OwnerType": "StardewValley.Menus.ChatBox",
      "InterfaceType": "Storm.StardewValley.Accessor.ChatBoxAccessor"
    },
    {
      "SimpleName": "TextBox",
      "OwnerType": "StardewValley.Menus.TextBox",
      "InterfaceType": "Storm.StardewValley.Accessor.TextBoxAccessor"
    },
    {
      "SimpleName": "ShopMenu",
      "OwnerType": "StardewValley.Menus.ShopMenu",
      "InterfaceType": "Storm.StardewValley.Accessor.ShopMenuAccessor"
    },
    {
      "SimpleName": "MineShaft",
      "OwnerType": "StardewValley.Locations.MineShaft",
      "InterfaceType": "Storm.StardewValley.Accessor.MineShaftAccessor"
    },
    {
      "SimpleName": "Horse",
      "OwnerType": "StardewValley.Characters.Horse",
      "InterfaceType": "Storm.StardewValley.Accessor.HorseAccessor"
    },
    {
      "SimpleName": "Barn",
      "OwnerType": "StardewValley.Buildings.Barn",
      "InterfaceType": "Storm.StardewValley.Accessor.BarnAccessor"
    },
    {
      "SimpleName": "Building",
      "OwnerType": "StardewValley.Buildings.Building",
      "InterfaceType": "Storm.StardewValley.Accessor.BuildingAccessor"
    },
    {
      "SimpleName": "Coop",
      "OwnerType": "StardewValley.Buildings.Coop",
      "InterfaceType": "Storm.StardewValley.Accessor.CoopAccessor"
    },
    {
      "SimpleName": "Stable",
      "OwnerType": "StardewValley.Buildings.Stable",
      "InterfaceType": "Storm.StardewValley.Accessor.StableAccessor"
    },
    {
      "SimpleName": "Pet",
      "OwnerType": "StardewValley.Characters.Pet",
      "InterfaceType": "Storm.StardewValley.Accessor.PetAccessor"
    },
    {
      "SimpleName": "Cat",
      "OwnerType": "StardewValley.Monsters.Cat",
      "InterfaceType": "Storm.StardewValley.Accessor.CatAccessor"
    },
    {
      "SimpleName": "Dog",
      "OwnerType": "StardewValley.Characters.Dog",
      "InterfaceType": "Storm.StardewValley.Accessor.DogAccessor"
    },
    {
      "SimpleName": "FarmAnimal",
      "OwnerType": "StardewValley.FarmAnimal",
      "InterfaceType": "Storm.StardewValley.Accessor.FarmAnimalAccessor"
    },
    {
      "SimpleName": "Junimo",
      "OwnerType": "StardewValley.Characters.Junimo",
      "InterfaceType": "Storm.StardewValley.Accessor.JunimoAccessor"
    },
    {
      "SimpleName": "CommunityCenter",
      "OwnerType": "StardewValley.Locations.CommunityCenter",
      "InterfaceType": "Storm.StardewValley.Accessor.CommunityCenterAccessor"
    },
    {
      "SimpleName": "Town",
      "OwnerType": "StardewValley.Locations.Town",
      "InterfaceType": "Storm.StardewValley.Accessor.TownAccessor"
    },
    {
      "SimpleName": "Tree",
      "OwnerType": "StardewValley.TerrainFeatures.Tree",
      "InterfaceType": "Storm.StardewValley.Accessor.TreeAccessor"
    },
    {
      "SimpleName": "Flooring",
      "OwnerType": "StardewValley.TerrainFeatures.Flooring",
      "InterfaceType": "Storm.StardewValley.Accessor.FlooringAccessor"
    },
    {
      "SimpleName": "FruitTree",
      "OwnerType": "StardewValley.TerrainFeatures.FruitTree",
      "InterfaceType": "Storm.StardewValley.Accessor.FruitTreeAccessor"
    },
    {
      "SimpleName": "OptionsPage",
      "OwnerType": "StardewValley.Menus.OptionsPage",
      "InterfaceType": "Storm.StardewValley.Accessor.OptionsPageAccessor"
    },
    {
      "SimpleName": "JunimoNoteMenu",
      "OwnerType": "StardewValley.Menus.JunimoNoteMenu",
      "InterfaceType": "Storm.StardewValley.Accessor.JunimoNoteMenuAccessor"
    },
    {
      "SimpleName": "ClickableAnimatedComponent",
      "OwnerType": "StardewValley.Menus.ClickableAnimatedComponent",
      "InterfaceType": "Storm.StardewValley.Accessor.ClickableAnimatedComponentAccessor"
    },
    {
      "SimpleName": "Bundle",
      "OwnerType": "StardewValley.Menus.Bundle",
      "InterfaceType": "Storm.StardewValley.Accessor.BundleAccessor"
    },
    {
      "SimpleName": "ScreenSwipe",
      "OwnerType": "StardewValley.BellsAndWhistles.ScreenSwipe",
      "InterfaceType": "Storm.StardewValley.Accessor.ScreenSwipeAccessor"
    },
    {
      "SimpleName": "MenuWithInventory",
      "OwnerType": "StardewValley.Menus.MenuWithInventory",
      "InterfaceType": "Storm.StardewValley.Accessor.MenuWithInventoryAccessor"
    }
  ]
}